{
  "personal": {
    "name": "Manon B",
    "jobtitle": "Technicienne de maintenance informatique",
    "location": {
      "city": "Paris", 
      "country": ""
      },
    "picture": "",
    "bio": "" 
  },
  "exp": [
    { "title": "Passe Numérique pro (Technicienn.e DevOps)",
      "start": "2019/2020", 
      "end": "15/04/2020", 
      "desc": "Conservatoire national des arts et métiers, Paris 75003"
    },
    { "title": "1ère Bac Professionnel ARCU",
      "start": "2017/2018",
      "end": "", 
      "desc": "Lycée professionnel Beaugrenelle, Paris 75015"
    }
  ],
  "edu": [
    { "title": "Responsable réseau Outseeders, (Bénévolat) Arpajon (91)",
      "start": "07/2019", 
      "end": "10/2019", 
      "desc": "-Administration système (Droit d'accès,création de profil utilisateur, Installation et maintenance réseau,Brassage prise réseaux)"
    },
    { "title": "Stage Technicienne de maintenance Outseeders, Arpajon (91)",
      "start": "06/2019", 
      "end": "", 
      "desc": "-Installer matériel logiciel et maintenance, Gérer le parc informatique,Diagnostiquer et résoudre des incidents matériels et logiciels , Gérer des utilisateurs, la sécurité du partage de ressources"
    }
  ],
  "details": {
    "adress": "",
    "adress2": "",
    "Phone": "",
    "email": "manonbouzidpro@gmail.com"
    },
  "projet": [
    { "title": "Création d'une vidéo",
      "start": "Avec Da Vinci Resolve ", 
      "end": "Montage vidéo", 
      "desc": [
      {"item": "Le sujet parle de la cyber sécurité."},
	  {"item": "La problématique de notre vidéo est : qu'est-ce qu'on ferait sans Internet"}
	  ]
    },
    { "title": "Création d'une application",
      "start": "Avec AppInventor", 
      "end": "",
      "desc": [
      {"item": "L'application avait pour but d'effectuer des achats en ligne"},
	  {"item": "Création d'une marque et d'un produit marketing"}
	  ]
    }
  ],
  "tech": [
    {"name": "Da vinci resolve", "level":50}, 
    {"name": "Gitlab", "level":60},
    {"name": "Photofiltre", "level":100},
    {"name": "Teamviewer", "level":80},
    {"name": "Outils bureautique, Word,Powerpoint", "level":70},
    {"name": "AppInventor", "level":60}
  ],
  "languageit": [
    {"name": "Bash ", "level":30},
    {"name": "Python ", "level":20},
    {"name":  "Scratch", "level":40}
    ],
  "lang": [
    {"name": "Anglais", "level":30}, 
    {"name": "Japonais", "level":50}, 
    {"name": "Coréen", "level":30}, 
    {"name": "Espagnol", "level":20}
  ],
  "skills": [
    {"name": "Montage vidéo/son", "level":60}, 
    {"name": "Administration Système Linux,winserver et Réseau", "level":30}, 
    {"name": "Maintenance informatique", "level":80}
  ],
  "links": [
    {"link": "https://www.linkedin.com/in/manon-b-223b5b189/", "icon": "fa-linkedin-square"}
  ]
}
